{
  "id": "none",
  "content": "<h1>帮助信息</h1><div class=\"collection\"><a href=\"#!\" class=\"collection-item\" onclick=\"reader('help/all')\">总览</a><a href=\"#!\" class=\"collection-item\" onclick=\"reader('help/0')\">第一章</a><a href=\"#!\" class=\"collection-item\" onclick=\"reader('help/1')\">第二章</a><a href=\"#!\" class=\"collection-item\" onclick=\"reader('help/buff')\">buff系统</a><a href=\"#!\" class=\"collection-item\" onclick=\"reader('help/2')\">第三章</a></div>"
}