{
    "header": "小说-从求婚的那天开始",
    "content": "<h6>“呼，你还知道回来！”，主人生气的拿着手机，“你看看，这都过去一个小时了！”<br>“喵，”<br>“还愣着干什么，去做饭啊！你到底买了什么能花这么长时间？”，主人把装菜的袋子抢过来，看见了我除了买今天吃的菜以外，还买了一斤多的生姜，坏笑了起来。一边牵着我的项圈，一边关上了门。<br>“小猫咪又买了不少给自己准备的东西呢。去换你自己的女仆装去，不许穿内裤。顺便把自己前拷起来。”<br>想到刚刚因为买菜太慢惹得主人生气，喵飞快的跑到换衣间把女仆装换好，然后向厨房跑去。拿上刚刚买的菜，准备开火做饭。刚刚蹲下身子准备去拿放在下面的橱柜里面的炒菜锅的时候，突然感觉到主人按住了咱的后腰，随后便是主人的手指插了进来。<br>“喵嗷！主人你干什么！”<br>“快点做饭！做饭的时候不许说话！”<br>她偷偷坏笑了几声，跑回去看电视了。我抬起头看了一眼案板，上面正摆放着咱刚买回来的姜，还有一大部分被切了丝。但切下来的部分……嗷呜呜呜！回手，啊原来主人让喵戴上手铐就是因为这个：让喵拿不出屁股里面被放的姜丝！再加上主人刚说的不许说话的命令，主人好坏！咱只好回头看了看主人 ，主人很明显没有认真的在看电视，手里又拿起了散鞭，趁咱后面完全被姜丝弄的无力抵抗的时候狠狠的打了一鞭。<br>“小坏猫赶快做饭，半个小时做不完再给你塞一点辣椒油哦！”，主人一边说着一边又用鞭子抽打了咱的小屁股。刚刚惩罚时被抽打的伤还没有完全消退，再加上里面被赛了姜丝，喵直接因此摔倒在了地上，有点像鸭子坐的姿势。因为摔到地上屁股又被重重的挤压，又试图跳起来，却因为鸭子坐和姜丝使不上力气，只能用戴着手铐的双手撑着地，勉强让屁股的压力减轻一些。随着手铐勒手、姜丝和屁股后面带来的隐隐痛楚，喵只好不由自主的发出呜呜的声音，用祈求的眼光抬头看着主人。<br>“你这样子真的好可爱啊！好想就这么把你推倒，不过那样中午就没的吃了。”，主人牵住喵的项圈，“快起来做饭，别跟这愣着了。姜丝做完饭就给你拿出来哦。”<br>“唔喵～”，喵借着主人拉咱项圈的力，稍稍整理了一下姿势，赶快站了起来。主人摸了摸喵的头，接着主人把喵的项圈和厨房上的固定点连接起来，随着主人手机的操控，链子升到了天花板上。再用一个口球塞住了喵的嘴，又从案板上拿起了那个不是很大的姜块，切成了好多细条，一条一条的塞进了喵的后面，“不做好饭不许出来！”，关上了厨房的门。<br>“喵呜呜”，后面抱怨着主人好坏，但前面却一直兴奋着。后面的姜和前面的手铐以及被固定在天花板上的链条，虽然咱以前自己在家也训练过这样做饭。但是，果然和主人在一起，就是不一样呢。<br></h6>",
    "footer": "<a  class=\"modal-close waves-effect waves-green btn-flat\" href=\"#!\">关闭</a><a  class=\"modal-close waves-effect waves-green btn-flat\" onclick=\"noval('0/6')\">阅读完了</a>"
  }
