{
  "header": "喵喵主线小说",
  "content": "<div class=\"collection\"><a href=\"#!\" class=\"collection-item\" onclick=\"modal('noval/0/0')\">第1章</a><a href=\"#!\" class=\"collection-item\" onclick=\"modal('noval/0/1')\">第2章</a><a href=\"#!\" class=\"collection-item\" onclick=\"modal('noval/0/2')\">第3章</a><a href=\"#!\" class=\"collection-item\" onclick=\"modal('noval/0/3')\">第4章</a><a href=\"#!\" class=\"collection-item\" onclick=\"modal('noval/0/4')\">第5章</a><a href=\"#!\" class=\"collection-item\" onclick=\"modal('noval/0/5')\">第6章</a><a href=\"#!\" class=\"collection-item\" onclick=\"modal('noval/0/6')\">第7章</a><a href=\"#!\" class=\"collection-item\" onclick=\"modal('noval/0/7')\">第8章</a><a href=\"#!\" class=\"collection-item\" onclick=\"modal('noval/0/8')\">第9章</a></div></div>",
  "footer": "<a  class=\"modal-close waves-effect waves-green btn-flat\" href=\"#!\">关闭</a>"
}
